timestamps,windspeed
2017-11-18 00:00:00,2.7999999999999994
2017-11-18 03:00:00,2.8666666666666667
2017-11-18 06:00:00,2.1333333333333333
2017-11-18 09:00:00,3.1333333333333333
2017-11-18 12:00:00,3.2999999999999994
2017-11-18 15:00:00,3.9
2017-11-18 18:00:00,4.266666666666667
2017-11-18 21:00:00,3.6999999999999997
