timestamps,windspeed
2017-10-01 00:00:00,1.6666666666666667
2017-10-01 03:00:00,1.4000000000000001
2017-10-01 06:00:00,2.033333333333333
2017-10-01 09:00:00,1.9000000000000001
2017-10-01 12:00:00,2.6333333333333333
2017-10-01 15:00:00,2.3
2017-10-01 18:00:00,1.4333333333333333
2017-10-01 21:00:00,1.2666666666666666
2017-10-02 00:00:00,1.8
2017-10-02 03:00:00,2.1666666666666665
2017-10-02 06:00:00,3.733333333333333
2017-10-02 09:00:00,4.1000000000000005
2017-10-02 12:00:00,4.3
2017-10-02 15:00:00,3.9333333333333336
2017-10-02 18:00:00,4.766666666666667
2017-10-02 21:00:00,4.966666666666666
2017-10-03 00:00:00,5.433333333333333
2017-10-03 03:00:00,4.766666666666667
2017-10-03 06:00:00,5.2
2017-10-03 09:00:00,4.766666666666667
2017-10-03 12:00:00,4.1000000000000005
2017-10-03 15:00:00,3.4
2017-10-03 18:00:00,3.6666666666666665
2017-10-03 21:00:00,3.3666666666666667
2017-10-04 00:00:00,4.3999999999999995
2017-10-04 03:00:00,4.333333333333333
2017-10-04 06:00:00,3.8333333333333335
2017-10-04 09:00:00,3.4666666666666663
2017-10-04 12:00:00,3.9333333333333336
2017-10-04 15:00:00,3.1999999999999997
2017-10-04 18:00:00,2.2
2017-10-04 21:00:00,2.0
2017-10-05 00:00:00,2.266666666666667
2017-10-05 03:00:00,2.8333333333333335
2017-10-05 06:00:00,2.1999999999999997
2017-10-05 09:00:00,1.9666666666666668
2017-10-05 12:00:00,1.5333333333333332
2017-10-05 15:00:00,1.2333333333333334
2017-10-05 18:00:00,1.8
2017-10-05 21:00:00,1.7333333333333334
2017-10-06 00:00:00,1.8999999999999997
2017-10-06 03:00:00,2.0
2017-10-06 06:00:00,2.1999999999999997
2017-10-06 09:00:00,2.1
2017-10-06 12:00:00,2.6666666666666665
2017-10-06 15:00:00,2.3333333333333335
2017-10-06 18:00:00,2.766666666666667
2017-10-06 21:00:00,2.3666666666666667
2017-10-07 00:00:00,1.9666666666666668
2017-10-07 03:00:00,1.8333333333333333
2017-10-07 06:00:00,1.0666666666666667
2017-10-07 09:00:00,1.4333333333333336
2017-10-07 12:00:00,2.2666666666666666
2017-10-07 15:00:00,1.6333333333333335
2017-10-07 18:00:00,1.3666666666666665
2017-10-07 21:00:00,3.133333333333333
2017-10-08 00:00:00,4.133333333333334
2017-10-08 03:00:00,3.433333333333333
2017-10-08 06:00:00,2.9
2017-10-08 09:00:00,4.133333333333333
2017-10-08 12:00:00,5.133333333333333
2017-10-08 15:00:00,4.1
2017-10-08 18:00:00,3.6999999999999997
2017-10-08 21:00:00,2.6666666666666665
2017-10-09 00:00:00,2.5
2017-10-09 03:00:00,2.6333333333333333
2017-10-09 06:00:00,3.8333333333333335
2017-10-09 09:00:00,4.2
2017-10-09 12:00:00,3.9
2017-10-09 15:00:00,4.066666666666666
2017-10-09 18:00:00,4.633333333333334
2017-10-09 21:00:00,3.6999999999999997
2017-10-10 00:00:00,3.1666666666666665
2017-10-10 03:00:00,2.6666666666666665
2017-10-10 06:00:00,3.5
2017-10-10 09:00:00,4.733333333333333
2017-10-10 12:00:00,4.8
2017-10-10 15:00:00,4.033333333333333
2017-10-10 18:00:00,4.166666666666667
2017-10-10 21:00:00,3.766666666666667
2017-10-11 00:00:00,3.266666666666667
2017-10-11 03:00:00,3.2000000000000006
2017-10-11 06:00:00,2.8000000000000003
2017-10-11 09:00:00,2.6
2017-10-11 12:00:00,2.8333333333333335
2017-10-11 15:00:00,2.5
2017-10-11 18:00:00,2.2666666666666666
2017-10-11 21:00:00,1.9666666666666668
2017-10-12 00:00:00,1.7333333333333334
2017-10-12 03:00:00,1.3333333333333333
2017-10-12 06:00:00,1.3333333333333333
2017-10-12 09:00:00,2.866666666666667
2017-10-12 12:00:00,3.633333333333333
2017-10-12 15:00:00,4.766666666666667
2017-10-12 18:00:00,4.8999999999999995
2017-10-12 21:00:00,4.8999999999999995
2017-10-13 00:00:00,5.2
2017-10-13 03:00:00,4.6
2017-10-13 06:00:00,4.033333333333334
2017-10-13 09:00:00,3.766666666666667
2017-10-13 12:00:00,2.9333333333333336
2017-10-13 15:00:00,2.866666666666667
2017-10-13 18:00:00,2.5
2017-10-13 21:00:00,2.1
2017-10-14 00:00:00,1.7
2017-10-14 03:00:00,1.0
2017-10-14 06:00:00,1.3
2017-10-14 09:00:00,2.8000000000000003
2017-10-14 12:00:00,3.466666666666667
2017-10-14 15:00:00,3.266666666666667
2017-10-14 18:00:00,3.0
2017-10-14 21:00:00,4.0
2017-10-15 00:00:00,3.8666666666666667
2017-10-15 03:00:00,3.9333333333333336
2017-10-15 06:00:00,2.9
2017-10-15 09:00:00,2.6666666666666665
2017-10-15 12:00:00,3.5666666666666664
2017-10-15 15:00:00,2.1
2017-10-15 18:00:00,1.5666666666666664
2017-10-15 21:00:00,1.6000000000000003
2017-10-16 00:00:00,2.4666666666666663
2017-10-16 03:00:00,3.8333333333333335
2017-10-16 06:00:00,3.8333333333333335
2017-10-16 09:00:00,3.6333333333333333
2017-10-16 12:00:00,3.0666666666666664
2017-10-16 15:00:00,4.133333333333334
2017-10-16 18:00:00,4.466666666666666
2017-10-16 21:00:00,3.5
2017-10-17 00:00:00,2.866666666666667
2017-10-17 03:00:00,2.4
2017-10-17 06:00:00,2.2666666666666666
2017-10-17 09:00:00,1.9333333333333333
2017-10-17 12:00:00,2.2666666666666666
2017-10-17 15:00:00,2.5
2017-10-17 18:00:00,3.5
2017-10-17 21:00:00,3.966666666666667
2017-10-18 00:00:00,3.533333333333333
2017-10-18 03:00:00,3.9
2017-10-18 06:00:00,3.7000000000000006
2017-10-18 09:00:00,4.066666666666667
2017-10-18 12:00:00,3.2999999999999994
2017-10-18 15:00:00,3.3333333333333335
2017-10-18 18:00:00,3.466666666666667
2017-10-18 21:00:00,2.533333333333333
2017-10-19 00:00:00,1.8
2017-10-19 03:00:00,2.2
2017-10-19 06:00:00,1.9333333333333333
2017-10-19 09:00:00,3.2999999999999994
2017-10-19 12:00:00,3.1
2017-10-19 15:00:00,2.3333333333333335
2017-10-19 18:00:00,2.4
2017-10-19 21:00:00,2.333333333333333
2017-10-20 00:00:00,2.233333333333333
2017-10-20 03:00:00,1.9000000000000001
2017-10-20 06:00:00,1.7333333333333334
2017-10-20 09:00:00,2.2333333333333334
2017-10-20 12:00:00,1.6333333333333335
2017-10-20 15:00:00,1.1333333333333335
2017-10-20 18:00:00,1.8
2017-10-20 21:00:00,2.3333333333333335
2017-10-21 00:00:00,1.5666666666666667
2017-10-21 03:00:00,1.8666666666666665
2017-10-21 06:00:00,1.1333333333333335
2017-10-21 09:00:00,0.7000000000000001
2017-10-21 12:00:00,1.8666666666666665
2017-10-21 15:00:00,1.4000000000000001
2017-10-21 18:00:00,1.1666666666666667
2017-10-21 21:00:00,1.2333333333333332
2017-10-22 00:00:00,1.6666666666666667
2017-10-22 03:00:00,1.8999999999999997
2017-10-22 06:00:00,2.1666666666666665
2017-10-22 09:00:00,1.7666666666666666
2017-10-22 12:00:00,1.9333333333333336
2017-10-22 15:00:00,1.8666666666666665
2017-10-22 18:00:00,2.533333333333333
2017-10-22 21:00:00,1.7000000000000002
2017-10-23 00:00:00,2.566666666666667
2017-10-23 03:00:00,3.133333333333333
2017-10-23 06:00:00,3.3333333333333335
2017-10-23 09:00:00,3.6333333333333333
2017-10-23 12:00:00,2.3
2017-10-23 15:00:00,2.866666666666667
2017-10-23 18:00:00,3.0
2017-10-23 21:00:00,3.0
2017-10-24 00:00:00,2.9
2017-10-24 03:00:00,1.9666666666666668
2017-10-24 06:00:00,1.7
2017-10-24 09:00:00,1.1666666666666667
2017-10-24 12:00:00,1.2666666666666666
2017-10-24 15:00:00,2.1333333333333333
2017-10-24 18:00:00,2.1999999999999997
2017-10-24 21:00:00,3.533333333333333
2017-10-25 00:00:00,2.966666666666667
2017-10-25 03:00:00,3.733333333333333
2017-10-25 06:00:00,4.4
2017-10-25 09:00:00,5.6000000000000005
2017-10-25 12:00:00,6.033333333333334
2017-10-25 15:00:00,6.766666666666667
2017-10-25 18:00:00,6.733333333333334
2017-10-25 21:00:00,6.166666666666667
2017-10-26 00:00:00,6.033333333333334
2017-10-26 03:00:00,4.366666666666667
2017-10-26 06:00:00,3.233333333333333
2017-10-26 09:00:00,2.7
2017-10-26 12:00:00,3.4
2017-10-26 15:00:00,3.633333333333333
2017-10-26 18:00:00,3.0
2017-10-26 21:00:00,2.5666666666666664
2017-10-27 00:00:00,2.9666666666666663
2017-10-27 03:00:00,2.9666666666666663
2017-10-27 06:00:00,2.3333333333333335
2017-10-27 09:00:00,1.8666666666666665
2017-10-27 12:00:00,1.7666666666666668
2017-10-27 15:00:00,1.4000000000000001
2017-10-27 18:00:00,1.3333333333333333
2017-10-27 21:00:00,1.5333333333333332
2017-10-28 00:00:00,1.8
2017-10-28 03:00:00,2.9333333333333336
2017-10-28 06:00:00,3.3333333333333335
2017-10-28 09:00:00,4.2
2017-10-28 12:00:00,4.233333333333333
2017-10-28 15:00:00,3.766666666666667
2017-10-28 18:00:00,3.0333333333333337
2017-10-28 21:00:00,2.733333333333333
2017-10-29 00:00:00,2.1666666666666665
2017-10-29 03:00:00,2.2666666666666666
2017-10-29 06:00:00,2.7000000000000006
2017-10-29 09:00:00,3.9333333333333336
2017-10-29 12:00:00,4.333333333333333
2017-10-29 15:00:00,4.0
2017-10-29 18:00:00,4.5
2017-10-29 21:00:00,4.2
2017-10-30 00:00:00,4.933333333333334
2017-10-30 03:00:00,4.933333333333334
2017-10-30 06:00:00,5.3999999999999995
2017-10-30 09:00:00,5.533333333333332
2017-10-30 12:00:00,5.933333333333334
2017-10-30 15:00:00,5.366666666666667
2017-10-30 18:00:00,5.166666666666667
2017-10-30 21:00:00,5.1000000000000005
2017-10-31 00:00:00,4.433333333333334
2017-10-31 03:00:00,4.3
2017-10-31 06:00:00,3.5999999999999996
2017-10-31 09:00:00,4.033333333333333
2017-10-31 12:00:00,3.266666666666667
2017-10-31 15:00:00,2.1333333333333333
2017-10-31 18:00:00,2.466666666666667
2017-10-31 21:00:00,1.7333333333333334
2017-11-01 00:00:00,0.9666666666666667
2017-11-01 03:00:00,1.2666666666666666
2017-11-01 06:00:00,2.733333333333333
2017-11-01 09:00:00,2.0999999999999996
2017-11-01 12:00:00,2.766666666666667
2017-11-01 15:00:00,3.1666666666666665
2017-11-01 18:00:00,3.4
2017-11-01 21:00:00,2.966666666666667
2017-11-02 00:00:00,2.0333333333333337
2017-11-02 03:00:00,2.5000000000000004
2017-11-02 06:00:00,2.8000000000000003
2017-11-02 09:00:00,2.966666666666667
2017-11-02 12:00:00,3.0
2017-11-02 15:00:00,2.6333333333333333
2017-11-02 18:00:00,1.7666666666666666
2017-11-02 21:00:00,1.0333333333333334
2017-11-03 00:00:00,2.1
2017-11-03 03:00:00,2.1999999999999997
2017-11-03 06:00:00,1.366666666666667
2017-11-03 09:00:00,1.9666666666666668
2017-11-03 12:00:00,1.7333333333333332
2017-11-03 15:00:00,2.1333333333333333
2017-11-03 18:00:00,2.5333333333333337
2017-11-03 21:00:00,3.4666666666666663
2017-11-04 00:00:00,3.766666666666667
2017-11-04 03:00:00,3.9666666666666663
2017-11-04 06:00:00,3.6999999999999997
2017-11-04 09:00:00,3.866666666666667
2017-11-04 12:00:00,3.5
2017-11-04 15:00:00,2.9
2017-11-04 18:00:00,2.6666666666666665
2017-11-04 21:00:00,2.4666666666666663
2017-11-05 00:00:00,3.1666666666666665
2017-11-05 03:00:00,3.1666666666666665
2017-11-05 06:00:00,3.3000000000000003
2017-11-05 09:00:00,3.3000000000000003
2017-11-05 12:00:00,2.9
2017-11-05 15:00:00,3.3000000000000003
2017-11-05 18:00:00,3.233333333333334
2017-11-05 21:00:00,3.1666666666666665
2017-11-06 00:00:00,3.733333333333333
2017-11-06 03:00:00,3.3000000000000003
2017-11-06 06:00:00,4.166666666666667
2017-11-06 09:00:00,3.4333333333333336
2017-11-06 12:00:00,3.1999999999999997
2017-11-06 15:00:00,2.9333333333333336
2017-11-06 18:00:00,3.6333333333333333
2017-11-06 21:00:00,1.4666666666666668
2017-11-07 00:00:00,1.3666666666666665
2017-11-07 03:00:00,1.4666666666666668
2017-11-07 06:00:00,1.3333333333333333
2017-11-07 09:00:00,2.033333333333333
2017-11-07 12:00:00,2.333333333333333
2017-11-07 15:00:00,2.3666666666666667
2017-11-07 18:00:00,2.1999999999999997
2017-11-07 21:00:00,2.1999999999999997
2017-11-08 00:00:00,1.8999999999999997
2017-11-08 03:00:00,2.266666666666667
2017-11-08 06:00:00,1.8999999999999997
2017-11-08 09:00:00,2.766666666666667
2017-11-08 12:00:00,3.3333333333333335
2017-11-08 15:00:00,2.266666666666667
2017-11-08 18:00:00,2.1333333333333333
2017-11-08 21:00:00,1.8333333333333333
2017-11-09 00:00:00,2.3000000000000003
2017-11-09 03:00:00,3.3666666666666667
2017-11-09 06:00:00,3.766666666666667
2017-11-09 09:00:00,4.566666666666667
2017-11-09 12:00:00,5.266666666666667
2017-11-09 15:00:00,6.033333333333334
2017-11-09 18:00:00,6.233333333333333
2017-11-09 21:00:00,6.033333333333334
2017-11-10 00:00:00,5.133333333333333
2017-11-10 03:00:00,3.3000000000000003
2017-11-10 06:00:00,2.8666666666666667
2017-11-10 09:00:00,2.8000000000000003
2017-11-10 12:00:00,2.533333333333333
2017-11-10 15:00:00,2.6999999999999997
2017-11-10 18:00:00,2.566666666666667
2017-11-10 21:00:00,1.9666666666666668
2017-11-11 00:00:00,2.4666666666666663
2017-11-11 03:00:00,3.5666666666666664
2017-11-11 06:00:00,4.833333333333333
2017-11-11 09:00:00,4.8
2017-11-11 12:00:00,3.1666666666666665
2017-11-11 15:00:00,3.1
2017-11-11 18:00:00,3.7999999999999994
2017-11-11 21:00:00,4.8999999999999995
2017-11-12 00:00:00,3.766666666666667
2017-11-12 03:00:00,1.6666666666666667
2017-11-12 06:00:00,1.4333333333333336
2017-11-12 09:00:00,1.1666666666666667
2017-11-12 12:00:00,1.1333333333333335
2017-11-12 15:00:00,1.2333333333333332
2017-11-12 18:00:00,0.9666666666666667
2017-11-12 21:00:00,1.5666666666666664
2017-11-13 00:00:00,1.9333333333333333
2017-11-13 03:00:00,2.2333333333333334
2017-11-13 06:00:00,2.6666666666666665
2017-11-13 09:00:00,2.866666666666667
2017-11-13 12:00:00,2.6
2017-11-13 15:00:00,1.0999999999999999
2017-11-13 18:00:00,1.4666666666666668
2017-11-13 21:00:00,1.6666666666666667
2017-11-14 00:00:00,1.0
2017-11-14 03:00:00,1.8
2017-11-14 06:00:00,2.1
2017-11-14 09:00:00,2.4
2017-11-14 12:00:00,2.1999999999999997
2017-11-14 15:00:00,1.7
2017-11-14 18:00:00,1.3333333333333333
2017-11-14 21:00:00,1.2
2017-11-15 00:00:00,2.1333333333333333
2017-11-15 03:00:00,1.5999999999999999
2017-11-15 06:00:00,1.7333333333333334
2017-11-15 09:00:00,2.2666666666666666
2017-11-15 12:00:00,2.033333333333333
2017-11-15 15:00:00,1.9666666666666668
2017-11-15 18:00:00,2.0
2017-11-15 21:00:00,3.8666666666666667
2017-11-16 00:00:00,3.8000000000000003
2017-11-16 03:00:00,2.466666666666667
2017-11-16 06:00:00,2.9
2017-11-16 09:00:00,3.9666666666666663
2017-11-16 12:00:00,3.3666666666666667
2017-11-16 15:00:00,1.7333333333333334
2017-11-16 18:00:00,1.6333333333333335
2017-11-16 21:00:00,2.6
2017-11-17 00:00:00,3.533333333333333
2017-11-17 03:00:00,5.1000000000000005
2017-11-17 06:00:00,5.566666666666667
2017-11-17 09:00:00,4.866666666666666
2017-11-17 12:00:00,3.966666666666667
2017-11-17 15:00:00,4.133333333333334
2017-11-17 18:00:00,3.533333333333333
2017-11-17 21:00:00,3.633333333333333
2017-11-18 00:00:00,2.7999999999999994
2017-11-18 03:00:00,2.8666666666666667
2017-11-18 06:00:00,2.1333333333333333
2017-11-18 09:00:00,3.1333333333333333
2017-11-18 12:00:00,3.2999999999999994
2017-11-18 15:00:00,3.9
2017-11-18 18:00:00,4.266666666666667
2017-11-18 21:00:00,3.6999999999999997
