timestamps,temperature
2017-11-17 00:00:00,2.033333333333333
2017-11-17 03:00:00,4.666666666666666
2017-11-17 06:00:00,5.566666666666667
2017-11-17 09:00:00,4.7
2017-11-17 12:00:00,3.266666666666667
2017-11-17 15:00:00,2.0333333333333337
2017-11-17 18:00:00,2.233333333333333
2017-11-17 21:00:00,2.2
